\BOOKMARK [2][]{Outline0.1}{Boundary conditions at coastal scales}{}% 1
\BOOKMARK [2][]{Outline0.2}{First tests with twin experiments}{}% 2
\BOOKMARK [2][]{Outline0.3}{Conclusions}{}% 3
\BOOKMARK [1][]{Outline1}{Appendix}{}% 4
