\beamer@endinputifotherversion {3.36pt}
\beamer@sectionintoc {1}{Boundary conditions at coastal scales}{2}{0}{1}
\beamer@sectionintoc {2}{First tests with twin experiments}{11}{0}{2}
\beamer@sectionintoc {3}{Conclusions}{16}{0}{3}
