\relax 
\providecommand\hyper@newdestlabel[2]{}
\providecommand\HyperFirstAtBeginDocument{\AtBeginDocument}
\HyperFirstAtBeginDocument{\ifx\hyper@anchor\@undefined
\global\let\oldcontentsline\contentsline
\gdef\contentsline#1#2#3#4{\oldcontentsline{#1}{#2}{#3}}
\global\let\oldnewlabel\newlabel
\gdef\newlabel#1#2{\newlabelxx{#1}#2}
\gdef\newlabelxx#1#2#3#4#5#6{\oldnewlabel{#1}{{#2}{#3}}}
\AtEndDocument{\ifx\hyper@anchor\@undefined
\let\contentsline\oldcontentsline
\let\newlabel\oldnewlabel
\fi}
\fi}
\global\let\hyper@last\relax 
\gdef\HyperFirstAtBeginDocument#1{#1}
\providecommand\HyField@AuxAddToFields[1]{}
\providecommand\HyField@AuxAddToCoFields[2]{}
\@writefile{toc}{\beamer@endinputifotherversion {3.36pt}}
\@writefile{nav}{\beamer@endinputifotherversion {3.36pt}}
\pgfsyspdfmark {pgfid1}{1398509}{17009647}
\@writefile{nav}{\headcommand {\slideentry {0}{0}{1}{1/1}{}{0}}}
\@writefile{nav}{\headcommand {\beamer@framepages {1}{1}}}
\@writefile{toc}{\beamer@sectionintoc {1}{Boundary conditions at coastal scales}{2}{0}{1}}
\@writefile{nav}{\headcommand {\sectionentry {1}{Boundary conditions at coastal scales}{2}{Boundary conditions at coastal scales}{0}}}
\@writefile{nav}{\headcommand {\beamer@sectionpages {1}{1}}}
\@writefile{nav}{\headcommand {\beamer@subsectionpages {1}{1}}}
\pgfsyspdfmark {pgfid3}{1398509}{17009647}
\@writefile{nav}{\headcommand {\slideentry {1}{0}{1}{2/2}{}{0}}}
\@writefile{nav}{\headcommand {\beamer@framepages {2}{2}}}
\citation{fringer2019future}
\@writefile{nav}{\headcommand {\slideentry {1}{0}{2}{3/3}{}{0}}}
\@writefile{nav}{\headcommand {\beamer@framepages {3}{3}}}
\@writefile{nav}{\headcommand {\slideentry {1}{0}{3}{4/4}{}{0}}}
\@writefile{nav}{\headcommand {\beamer@framepages {4}{4}}}
\@writefile{nav}{\headcommand {\slideentry {1}{0}{4}{5/5}{}{0}}}
\@writefile{nav}{\headcommand {\beamer@framepages {5}{5}}}
\citation{devenon1990optimal}
\citation{lynch1998hindcasting}
\citation{altaf2011simultaneous}
\@writefile{nav}{\headcommand {\slideentry {1}{0}{5}{6/6}{}{0}}}
\@writefile{nav}{\headcommand {\beamer@framepages {6}{6}}}
\citation{spall1998overview}
\citation{hoang2011efficiency}
\citation{altaf2011simultaneous}
\citation{messie2020delayed}
\@writefile{nav}{\headcommand {\slideentry {1}{0}{6}{7/7}{}{0}}}
\@writefile{nav}{\headcommand {\beamer@framepages {7}{7}}}
\@writefile{nav}{\headcommand {\slideentry {1}{0}{7}{8/8}{}{0}}}
\@writefile{nav}{\headcommand {\beamer@framepages {8}{8}}}
\citation{unser1999splines}
\citation{jahns1966}
\@writefile{nav}{\headcommand {\slideentry {1}{0}{8}{9/9}{}{0}}}
\@writefile{nav}{\headcommand {\beamer@framepages {9}{9}}}
\@writefile{nav}{\headcommand {\slideentry {1}{0}{9}{10/10}{}{0}}}
\@writefile{nav}{\headcommand {\beamer@framepages {10}{10}}}
\@writefile{toc}{\beamer@sectionintoc {2}{First tests with twin experiments}{11}{0}{2}}
\@writefile{nav}{\headcommand {\sectionentry {2}{First tests with twin experiments}{11}{First tests with twin experiments}{0}}}
\@writefile{nav}{\headcommand {\beamer@sectionpages {2}{10}}}
\@writefile{nav}{\headcommand {\beamer@subsectionpages {2}{10}}}
\pgfsyspdfmark {pgfid21}{1398509}{17009647}
\@writefile{nav}{\headcommand {\slideentry {2}{0}{1}{11/11}{}{0}}}
\@writefile{nav}{\headcommand {\beamer@framepages {11}{11}}}
\@writefile{nav}{\headcommand {\slideentry {2}{0}{2}{12/12}{}{0}}}
\@writefile{nav}{\headcommand {\beamer@framepages {12}{12}}}
\@writefile{nav}{\headcommand {\slideentry {2}{0}{3}{13/13}{}{0}}}
\@writefile{nav}{\headcommand {\beamer@framepages {13}{13}}}
\@writefile{nav}{\headcommand {\slideentry {2}{0}{4}{14/14}{}{0}}}
\@writefile{nav}{\headcommand {\beamer@framepages {14}{14}}}
\@writefile{nav}{\headcommand {\slideentry {2}{0}{5}{15/15}{}{0}}}
\@writefile{nav}{\headcommand {\beamer@framepages {15}{15}}}
\@writefile{toc}{\beamer@sectionintoc {3}{Conclusions}{16}{0}{3}}
\@writefile{nav}{\headcommand {\sectionentry {3}{Conclusions}{16}{Conclusions}{0}}}
\@writefile{nav}{\headcommand {\beamer@sectionpages {11}{15}}}
\@writefile{nav}{\headcommand {\beamer@subsectionpages {11}{15}}}
\pgfsyspdfmark {pgfid31}{1398509}{17009647}
\@writefile{nav}{\headcommand {\slideentry {3}{0}{1}{16/16}{}{0}}}
\@writefile{nav}{\headcommand {\beamer@framepages {16}{16}}}
\@writefile{nav}{\headcommand {\slideentry {3}{0}{2}{17/17}{}{0}}}
\@writefile{nav}{\headcommand {\beamer@framepages {17}{17}}}
\@writefile{nav}{\headcommand {\slideentry {3}{0}{3}{18/18}{}{0}}}
\@writefile{nav}{\headcommand {\beamer@framepages {18}{18}}}
\@writefile{nav}{\headcommand {\slideentry {3}{0}{4}{19/19}{}{0}}}
\@writefile{nav}{\headcommand {\beamer@framepages {19}{19}}}
\@writefile{nav}{\headcommand {\slideentry {3}{0}{5}{20/20}{}{0}}}
\@writefile{nav}{\headcommand {\beamer@framepages {20}{20}}}
\global\@namedef{mainendframenumber}{15}
\citation{*}
\bibdata{example.bib}
\bibcite{altaf2011simultaneous}{\hyperlink {beamerbibaltaf2011simultaneous}{Altaf et\nobreakspace  {}al., 2011}}
\bibcite{bhatnagar2015simultaneous}{\hyperlink {beamerbibbhatnagar2015simultaneous}{Bhatnagar and Prashanth, 2015}}
\bibcite{chevalier2015impact}{\hyperlink {beamerbibchevalier2015impact}{Chevalier et\nobreakspace  {}al., 2015}}
\bibcite{devenon1990optimal}{\hyperlink {beamerbibdevenon1990optimal}{Devenon, 1990}}
\bibcite{fringer2019future}{\hyperlink {beamerbibfringer2019future}{Fringer et\nobreakspace  {}al., 2019}}
\bibcite{hoang2011efficiency}{\hyperlink {beamerbibhoang2011efficiency}{Hoang and Baraille, 2011}}
\bibcite{jahns1966}{\hyperlink {beamerbibjahns1966}{Jahns, 1966}}
\bibcite{lynch1998hindcasting}{\hyperlink {beamerbiblynch1998hindcasting}{Lynch et\nobreakspace  {}al., 1998}}
\bibcite{messie2020delayed}{\hyperlink {beamerbibmessie2020delayed}{Messi{\'e} et\nobreakspace  {}al., 2020}}
\bibcite{sous2017circulation}{\hyperlink {beamerbibsous2017circulation}{Sous et\nobreakspace  {}al., 2017}}
\bibcite{spall1998overview}{\hyperlink {beamerbibspall1998overview}{Spall, 1998}}
\bibcite{tympakianaki2015c}{\hyperlink {beamerbibtympakianaki2015c}{Tympakianaki et\nobreakspace  {}al., 2015}}
\bibcite{unser1999splines}{\hyperlink {beamerbibunser1999splines}{Unser, 1999}}
\bibstyle{apalike}
\@writefile{nav}{\headcommand {\partentry {\translate  {Appendix}}{1}}}
\@writefile{nav}{\headcommand {\beamer@partpages {1}{20}}}
\@writefile{nav}{\headcommand {\beamer@sectionpages {16}{20}}}
\@writefile{nav}{\headcommand {\beamer@subsectionpages {16}{20}}}
\@writefile{nav}{\headcommand {\beamer@appendixpages {21}}}
\@writefile{nav}{\headcommand {\slideentry {3}{0}{6}{21/21}{}{1}}}
\@writefile{nav}{\headcommand {\beamer@framepages {21}{21}}}
\@writefile{nav}{\headcommand {\slideentry {3}{0}{6}{21/22}{}{1}}}
\@writefile{nav}{\headcommand {\beamer@framepages {21}{22}}}
\@writefile{nav}{\headcommand {\slideentry {3}{0}{6}{21/23}{}{1}}}
\@writefile{nav}{\headcommand {\beamer@framepages {21}{23}}}
\@writefile{nav}{\headcommand {\slideentry {3}{0}{6}{21/24}{}{1}}}
\@writefile{nav}{\headcommand {\beamer@framepages {21}{24}}}
\@writefile{nav}{\headcommand {\slideentry {3}{0}{6}{21/25}{}{1}}}
\@writefile{nav}{\headcommand {\beamer@framepages {21}{25}}}
\@writefile{nav}{\headcommand {\beamer@partpages {21}{25}}}
\@writefile{nav}{\headcommand {\beamer@subsectionpages {21}{25}}}
\@writefile{nav}{\headcommand {\beamer@sectionpages {21}{25}}}
\@writefile{nav}{\headcommand {\beamer@documentpages {25}}}
\@writefile{nav}{\headcommand {\def \inserttotalframenumber {5}}}
\global\@namedef{appendixtotalframenumber}{5}
\global\@namedef{inserttotalframenumber}{15}
\@writefile{nav}{\headcommand {\def \inserttotalframenumber {15}}}
\@writefile{nav}{\headcommand {\def \appendixtotalframenumber {5}}}
