This is BibTeX, Version 0.99d (TeX Live 2015/Debian)
Capacity: max_strings=35307, hash_size=35307, hash_prime=30011
The top-level auxiliary file: Presentation_GKoenig.aux
The style file: apalike.bst
Database file #1: example.bib.bib
You've used 13 entries,
            1935 wiz_defined-function locations,
            561 strings with 6567 characters,
and the built_in function-call counts, 5936 in all, are:
= -- 597
> -- 245
< -- 8
+ -- 92
- -- 84
* -- 507
:= -- 993
add.period$ -- 39
call.type$ -- 13
change.case$ -- 107
chr.to.int$ -- 13
cite$ -- 13
duplicate$ -- 222
empty$ -- 395
format.name$ -- 101
if$ -- 1173
int.to.chr$ -- 1
int.to.str$ -- 0
missing$ -- 13
newline$ -- 68
num.names$ -- 39
pop$ -- 81
preamble$ -- 1
purify$ -- 107
quote$ -- 0
skip$ -- 192
stack$ -- 0
substring$ -- 479
swap$ -- 53
text.length$ -- 2
text.prefix$ -- 0
top$ -- 0
type$ -- 78
warning$ -- 0
while$ -- 49
width$ -- 0
write$ -- 171
